[gd_scene load_steps=3 format=2]

[ext_resource path="res://menus/ingame/ScoreMeter.gd" type="Script" id=1]
[ext_resource path="res://menus/MenuLabel.tscn" type="PackedScene" id=2]

[node name="ScoreMeter" type="Control"]
anchor_right = 1.0
anchor_bottom = 1.0
size_flags_horizontal = 3
size_flags_vertical = 3
script = ExtResource( 1 )

[node name="VBoxContainer" type="VBoxContainer" parent="."]
anchor_right = 1.0
anchor_bottom = 1.0

[node name="Time" parent="VBoxContainer" instance=ExtResource( 2 )]
margin_right = 1920.0
text = "time: "
align = 1

[node name="Ghost" parent="VBoxContainer" instance=ExtResource( 2 )]
margin_top = 104.0
margin_right = 1920.0
margin_bottom = 204.0
text = "*GHOST*"
align = 1
